01/09/2012
141456
N;102;119;468;469;416;417;420;421
N;110;512;511;214;221
N;617;618;186;317;318
C;452;505;127;651;650;158;135;472;523;536;537
C;414;415;412;413;134;147;160;530;531;234;235
C;605;606;615;616;470;471;637;638;641;642
N;107;108;510;703;704;513;179
N;123;152;206;207;169
N;365;366;522;473
C;500;453;659;660;621;622;673;674;484;485
C;309;304;236;237;145;631;632;170;224;225;195
N;501;590;591
N;604;454;455;192

---
145;158;135;472;523;536;537;
501;
604;454;455;
590;591;
123;152;206;207;
420;421;
530;531;234;235;
169;186;317;318;
107;108;510;703;704;513;
617;618;
631;632;170;224;225;195;
309;304;236;237;
414;415;412;413;134;147;
470;471;637;638;641;642;
500;453;659;660;621;622;160;
102;119;468;469;416;417;
673;674;484;485;
365;366;522;473;192;
452;505;127;651;650;
605;606;615;616;
110;512;511;214;221;179;
