02/09/2012	ATN	500	LPA	ACE	06:00	06:45
02/09/2012	ATN	200	LPA	FUE	06:00	06:40
02/09/2012	ATN	452	TFN	ACE	06:15	07:05
02/09/2012	ATC	414	TFN	FUE	06:15	07:05
02/09/2012	ATN	309	LPA	SPC	06:20	07:10
02/09/2012	ATC	605	TFN	SPC	06:30	07:00
02/09/2012	ATN	102	TFN	LPA	07:00	07:30
02/09/2012	ATN	107	LPA	TFN	07:00	07:30
02/09/2012	ATN	203	FUE	LPA	07:00	07:40
02/09/2012	ATN	655	TFN	VDE	07:00	07:40
02/09/2012	ATN	501	ACE	LPA	07:15	08:00
02/09/2012	ATC	606	SPC	TFN	07:30	08:00
02/09/2012	ATN	453	ACE	TFN	07:35	08:25
02/09/2012	ATC	415	FUE	TFN	07:35	08:25
02/09/2012	ATN	304	SPC	LPA	07:40	08:30
02/09/2012	ATN	119	LPA	TFN	08:00	08:30
02/09/2012	ATN	108	TFN	LPA	08:00	08:30
02/09/2012	ATN	656	VDE	TFN	08:10	08:50
02/09/2012	ATB	303	LPA	SPC	08:10	09:00
02/09/2012	ATC	510	LPA	ACE	08:30	09:15
02/09/2012	ATN	208	LPA	FUE	09:00	09:40
02/09/2012	ATN	123	LPA	TFS	09:00	09:30
02/09/2012	ATC	615	TFN	SPC	09:00	09:30
02/09/2012	ATN	6400	LPA	CMN	09:15	11:45
02/09/2012	ATN	6200	LPA	RAK	09:30	11:30
02/09/2012	ATB	704	SPC	ACE	09:30	10:30
02/09/2012	ATC	511	ACE	LPA	09:45	10:30
02/09/2012	ATN	110	TFN	LPA	10:00	10:30
02/09/2012	ATN	152	TFS	LPA	10:00	10:30
02/09/2012	ATN	912	LPA	FNC	10:00	11:30
02/09/2012	ATN	127	LPA	TFN	10:00	10:30
02/09/2012	ATC	616	SPC	TFN	10:00	10:30
02/09/2012	ATN	209	FUE	LPA	10:05	10:45
02/09/2012	ATC	468	TFN	ACE	10:20	11:10
02/09/2012	ATC	365	LPA	VDE	11:00	11:55
02/09/2012	ATN	651	TFN	GMZ	11:00	11:30
02/09/2012	ATB	703	ACE	SPC	11:00	12:10
02/09/2012	ATC	619	TFN	SPC	11:00	11:30
02/09/2012	ATC	416	TFN	FUE	11:30	12:20
02/09/2012	ATN	464	TFN	ACE	11:35	12:25
02/09/2012	ATC	469	ACE	TFN	11:40	12:30
02/09/2012	ATN	913	FNC	LPA	12:00	13:30
02/09/2012	ATN	650	GMZ	TFN	12:00	12:30
02/09/2012	ATC	620	SPC	TFN	12:00	12:30
02/09/2012	ATN	661	TFN	VDE	12:10	12:50
02/09/2012	ATN	6201	RAK	LPA	12:15	14:25
02/09/2012	ATC	366	VDE	LPA	12:25	13:15
02/09/2012	ATN	6401	CMN	LPA	12:30	15:10
02/09/2012	ATB	310	SPC	LPA	12:40	13:30
02/09/2012	ATC	417	FUE	TFN	12:50	13:40
02/09/2012	ATN	465	ACE	TFN	12:50	13:40
02/09/2012	ATN	147	LPA	TFN	13:00	13:30
02/09/2012	ATC	629	TFN	SPC	13:00	13:30
02/09/2012	ATN	158	TFN	LPA	13:00	13:30
02/09/2012	ATC	428	TFN	FUE	13:00	13:50
02/09/2012	ATN	662	VDE	TFN	13:20	14:00
02/09/2012	ATN	466	TFN	ACE	13:20	14:10
02/09/2012	ATN	518	LPA	ACE	13:30	14:15
02/09/2012	ATN	216	LPA	FUE	13:30	14:10
02/09/2012	ATC	630	SPC	TFN	14:00	14:30
02/09/2012	ATC	311	LPA	SPC	14:00	14:50
02/09/2012	ATN	663	TFN	VDE	14:10	14:50
02/09/2012	ATC	420	TFN	FUE	14:15	15:05
02/09/2012	ATC	429	FUE	TFN	14:20	15:10
02/09/2012	ATN	217	FUE	LPA	14:40	15:20
02/09/2012	ATN	214	LPA	FUE	14:40	15:20
02/09/2012	ATN	467	ACE	TFN	14:40	15:30
02/09/2012	ATC	522	LPA	ACE	14:45	15:30
02/09/2012	ATN	519	ACE	LPA	14:45	15:30
02/09/2012	ATN	165	LPA	TFN	15:00	15:30
02/09/2012	ATN	633	TFN	SPC	15:00	15:30
02/09/2012	ATN	6100	LPA	EUN	15:00	15:45
02/09/2012	ATN	166	TFN	LPA	15:00	15:30
02/09/2012	ATN	664	VDE	TFN	15:20	16:00
02/09/2012	ATC	312	SPC	LPA	15:20	16:10
02/09/2012	ATC	472	TFN	ACE	15:30	16:20
02/09/2012	ATC	673	TFN	VDE	15:30	16:10
02/09/2012	ATC	421	FUE	TFN	15:35	16:25
02/09/2012	ATN	221	FUE	LPA	15:50	16:30
02/09/2012	ATC	523	ACE	LPA	16:00	16:45
02/09/2012	ATN	170	TFN	LPA	16:00	16:30
02/09/2012	ATN	524	LPA	ACE	16:00	16:45
02/09/2012	ATN	634	SPC	TFN	16:00	16:30
02/09/2012	ATN	222	LPA	FUE	16:00	16:40
02/09/2012	ATN	635	TFN	SPC	16:00	16:30
02/09/2012	ATN	169	LPA	TFN	16:00	16:30
02/09/2012	ATN	6101	EUN	LPA	16:15	17:00
02/09/2012	ATN	432	TFN	FUE	16:30	17:20
02/09/2012	ATC	674	VDE	TFN	16:40	17:20
02/09/2012	ATC	473	ACE	TFN	16:50	17:40
02/09/2012	ATN	474	TFN	ACE	16:55	17:45
02/09/2012	ATN	526	LPA	ACE	17:00	17:45
02/09/2012	ATC	178	TFN	LPA	17:00	17:30
02/09/2012	ATN	224	LPA	FUE	17:00	17:40
02/09/2012	ATN	636	SPC	TFN	17:00	17:30
02/09/2012	ATC	173	LPA	TFN	17:00	17:30
02/09/2012	ATN	637	TFN	SPC	17:00	17:30
02/09/2012	ATN	227	FUE	LPA	17:05	17:45
02/09/2012	ATC	530	LPA	ACE	17:15	18:00
02/09/2012	ATN	525	ACE	LPA	17:15	18:00
02/09/2012	ATN	226	LPA	FUE	17:20	18:00
02/09/2012	ATN	175	LPA	TFN	17:30	18:00
02/09/2012	ATN	433	FUE	TFN	17:50	18:40
02/09/2012	ATC	179	LPA	TFN	18:00	18:30
02/09/2012	ATN	225	FUE	LPA	18:00	18:40
02/09/2012	ATN	639	TFN	SPC	18:00	18:30
02/09/2012	ATC	186	TFN	LPA	18:00	18:30
02/09/2012	ATN	638	SPC	TFN	18:00	18:30
02/09/2012	ATC	484	TFN	ACE	18:00	18:50
02/09/2012	ATC	422	TFN	FUE	18:10	19:00
02/09/2012	ATN	475	ACE	TFN	18:10	19:00
02/09/2012	ATN	228	LPA	FUE	18:10	18:50
02/09/2012	ATN	529	ACE	LPA	18:15	19:00
02/09/2012	ATN	229	FUE	LPA	18:25	19:05
02/09/2012	ATN	100	TFN	LPA	18:30	19:00
02/09/2012	ATC	531	ACE	LPA	18:30	19:15
02/09/2012	ATN	536	LPA	ACE	18:30	19:15
02/09/2012	ATC	317	LPA	SPC	18:55	19:45
02/09/2012	ATN	641	TFN	SPC	19:00	19:30
02/09/2012	ATC	188	TFN	LPA	19:00	19:30
02/09/2012	ATN	191	LPA	TFN	19:00	19:30
02/09/2012	ATN	640	SPC	TFN	19:00	19:30
02/09/2012	ATN	231	FUE	LPA	19:15	19:55
02/09/2012	ATC	485	ACE	TFN	19:20	20:10
02/09/2012	ATN	234	LPA	FUE	19:25	20:05
02/09/2012	ATN	627	TFN	SPC	19:25	19:55
02/09/2012	ATN	532	LPA	ACE	19:30	20:15
02/09/2012	ATC	423	FUE	TFN	19:30	20:20
02/09/2012	ATN	537	ACE	LPA	19:45	20:30
02/09/2012	ATC	187	LPA	TFS	20:00	20:30
02/09/2012	ATN	642	SPC	TFN	20:00	20:30
02/09/2012	ATC	195	LPA	TFN	20:00	20:30
02/09/2012	ATN	192	TFN	LPA	20:00	20:30
02/09/2012	ATC	318	SPC	LPA	20:15	21:05
02/09/2012	ATN	236	LPA	FUE	20:20	21:00
02/09/2012	ATN	235	FUE	LPA	20:30	21:10
02/09/2012	ATN	535	ACE	LPA	20:45	21:30
02/09/2012	ATC	194	TFS	LPA	21:00	21:30
02/09/2012	ATN	540	LPA	ACE	21:00	21:45
02/09/2012	ATN	237	FUE	LPA	21:20	22:00