06/05/2013
13930
0
N;503;210;211;514;511;214;221;228;231
N;604;611;612;4701;4711;420;421;186
N;414;415;468;469;663;664
N;452;453;609;610;621;622;166;220;219;317;318
N;106;236;237;510;513;212;213;522;523;530;531
N;605;606;651;650;110;524;525;536;537
N;500;501;590;591;145;170;173;484;485
N;101;655;656;412;413;134;538
N;309;304;123;152;147;474;475;627
N;504;505;6300;6301;191
N;365;366;167;673;674
C;100;105;659;660;470;471;635;636;428;429
C;102;208;207;518;519;224;225;234;235
C;607;608;4681;4691;631;632;653;652;639;640;192
C;200;203;119;120;127;158;135;633;634;178;179;188;195
C;107;108;109;617;618;160;169

---
414;415;468;469;663;664;
452;453;609;610;621;622;
106;236;237;510;513;147;
605;606;651;650;110;145;
100;105;659;660;470;471;
604;611;612;4701;4711;420;421;
607;608;4681;4691;631;632;
102;208;207;518;519;169;
166;220;219;191;
653;652;639;640;
635;636;428;429;
170;173;484;485;
474;475;627;
188;195;
500;501;590;591;
200;203;119;120;127;158;
101;655;656;412;413;134;
309;304;123;152;
107;108;109;617;618;160;
504;505;6300;6301;
210;211;514;511;214;221;
365;366;167;673;674;186;
212;213;522;523;530;531;
135;633;634;178;179;192;
524;525;536;537;
224;225;234;235;
228;231;
317;318;
503
538