08/05/2013
14480
0
N;503;514;511;522;523;530;531
N;604;611;612;178;536;537
N;500;501;111;659;660;158;538
N;200;203;119;120;5101;5111;212;213;214;221;173
N;101;655;656;412;413;134;147;633;634;637;638;627
N;103;104;590;591;518;519;169
N;107;108;123;152;145;653;652;484;485
N;452;453;609;610;621;622;160;171;172;226;227;195
N;414;415;468;469;663;664;474;475;188
N;106;236;237;510;513;5221;5231;220;219;228;231
N;607;608;631;632;673;674;186;317;318
C;309;304;109;110;365;366;167;635;636;428;429
C;504;505;6400;6401;179
C;605;606;651;650;470;471;168;165;639;640
C;100;105;112;206;207;135;166;524;525;191;192
C;102;208;209;127;420;421;170;234;235

---
452;453;609;610;621;622;
414;415;468;469;663;664;
106;236;237;510;513;147;
100;105;112;206;207;135;
605;606;651;650;470;471;
102;208;209;127;420;421;
604;611;612;
607;608;
160;171;172;226;227;195;
166;524;525;191;
633;634;637;638;627;
168;165;639;640;
653;652;484;485;
170;179;
474;475;
428;429;
500;501;111;659;660;158;
200;203;119;120;5101;5111;
101;655;656;412;413;134;
309;304;109;110;
103;104;590;591;
107;108;123;152;
504;505;6400;6401;
145;631;632;673;674;186;
514;511;522;523;530;531;
365;366;167;635;636;192;
212;213;214;221;173;188;
5221;5231;220;219;228;231;
518;519;169;178;536;537;
317;318;
234;235;
503
538