03/05/2013
14980
0
N;503;236;237;510;513;365;366;311;312;228;231
N;604;611;612;631;632;635;636;186
N;200;203;590;591;212;213;214;221;224;225;195
N;101;108;109;663;664;653;652;641
N;309;304;6300;6301;6100;6101;222;227;191
N;504;505;206;207;518;519;524;525;317;318
N;508;507;216;217;220;219;536
N;165;170;173;484;485
N;414;415;609;610;619;620;639;640;192
N;452;453;188;538;549
N;605;606;651;650;110;514;511;522;523;530;531;187;194
C;500;501;123;152;145;673;674;627;642
C;208;209;127;464;465;420;421;422;423
C;106;105;120;202;205;506;521;526;529;230;233
C;655;656;468;469;416;417;472;473
C;607;608;659;660;621;622;160;532;533

---
414;415;
452;453;
106;208;209;127;
605;606;651;650;
655;656;468;469;
604;609;610;619;620;
607;608;659;660;
611;612;
416;417;472;473;
464;465;420;421;422;423;
621;622;673;674;627;642;
663;664;653;652;641;
631;632;635;636;186;195;
484;485;
639;640;
500;501;123;152;
200;203;590;591;
101;108;109;110;514;511;
309;304;6300;6301;
504;505;206;207;
236;237;510;513;
105;120;202;205;
508;507;216;217;220;219;536;
145;160;532;533;
365;366;311;312;228;231;
212;213;214;221;224;225;
518;519;524;525;317;318;
506;521;526;529;230;233;
6100;6101;222;227;191;192;
522;523;530;531;187;194;
165;170;173;188;538;549;
503