06:00	06:59	2	13:00
06:00	06:59	3	12:30
06:00	06:59	4	12:00
06:00	06:59	5	11:15
06:00	06:59	6	10:30
06:00	06:59	7	09:45
06:00	06:59	8	09:00
07:00	11:59	2	13:00
07:00	11:59	3	12:30
07:00	11:59	4	12:00
07:00	11:59	5	11:30
07:00	11:59	6	11:00
07:00	11:59	7	10:15
07:00	11:59	8	09:30
12:00	12:59	2	13:00
12:00	12:59	3	12:30
12:00	12:59	4	12:00
12:00	12:59	5	11:15
12:00	12:59	6	10:30
12:00	12:59	7	09:45
12:00	12:59	8	09:00
13:00	13:29	2	11:00
13:00	13:29	3	12:30
13:00	13:29	4	12:00
13:00	13:29	5	11:15
13:00	13:29	6	10:30
13:00	13:29	7	09:45
13:00	13:29	8	09:00
13:30	13:59	2	11:00
13:30	13:59	3	10:30
13:30	13:59	4	12:00
13:30	13:59	5	11:15
13:30	13:59	6	10:30
13:30	13:59	7	09:45
13:30	13:59	8	09:00
14:00	14:59	2	11:00
14:00	14:59	3	10:30
14:00	14:59	4	11:30
14:00	14:59	5	10:45
14:00	14:59	6	10:00
14:00	14:59	7	09:15
14:00	14:59	8	09:00
15:00	15:59	2	11:00
15:00	15:59	3	10:30
15:00	15:59	4	10:00
15:00	15:59	5	10:45
15:00	15:59	6	10:00
15:00	15:59	7	09:15
15:00	15:59	8	09:00
16:00	16:59	2	11:00
16:00	16:59	3	10:30
16:00	16:59	4	10:00
16:00	16:59	5	10:15
16:00	16:59	6	09:30
16:00	16:59	7	09:00
16:00	16:59	8	09:00
17:00	17:29	2	11:00
17:00	17:29	3	10:30
17:00	17:29	4	10:00
17:00	17:29	5	09:30
17:00	17:29	6	09:30
17:00	17:29	7	09:00
17:00	17:29	8	09:00
17:30	17:59	2	11:00
17:30	17:59	3	10:30
17:30	17:59	4	10:00
17:30	17:59	5	09:30
17:30	17:59	6	09:30
17:30	17:59	7	09:00
17:30	17:59	8	09:00
18:00	18:29	2	11:00
18:00	18:29	3	10:30
18:00	18:29	4	10:00
18:00	18:29	5	09:30
18:00	18:29	6	09:00
18:00	18:29	7	09:00
18:00	18:29	8	09:00
18:30	23:59	2	11:00
18:30	23:59	3	10:30
18:30	23:59	4	10:00
18:30	23:59	5	09:30
18:30	23:59	6	09:00
18:30	23:59	7	09:00
18:30	23:59	8	09:00